My ideal open data API – Ross Bowen
…
The first column contains empty strings

Numbers in the data are treated as strings, due to columns having mixed data types

Organising the table as tidy data, with each variable having its own column gives an output which can be instantly read into R, without need for further cleaning.

For data to be classified as tidy data:

Each variable forms a column

Each observation forms a row

Each type of observational unit forms a table

# A tibble: 24 × 4
   area    sex    period    life_expectancy
   <chr>   <chr>  <chr>               <dbl>
 1 Newport Male   2004-2006            76.7
 2 Newport Female 2004-2006            80.7
 3 Newport Male   2005-2007            77.1
 4 Newport Female 2005-2007            80.9
 5 Newport Male   2006-2008            77.0
 6 Newport Female 2006-2008            81.5
 7 Cardiff Male   2004-2006            78.7
 8 Cardiff Female 2004-2006            83.3
 9 Cardiff Male   2005-2007            78.6
10 Cardiff Female 2005-2007            83.7
# ℹ 14 more rows
# ℹ Use `print(n = ...)` to see more rows
…
