Exploring expert systems – Ross Bowen
…
print(fit)

The simulation ran successfully, and the mean column of the summary gives the marginal probabilities for each of the traits in the system. Let’s take a look at our samples:

params <- rstan::extract(fit)
samples <- tibble::as_tibble(params)

print(samples)
#> # A tibble: 200,000 × 9
#>     asia smoking tuberculosis lung_cancer bronchitis either  xray dyspnoea  lp__
#>    <dbl> <dbl[1>    <dbl[1d]>   <dbl[1d]>  <dbl[1d]> <dbl[> <dbl> <dbl[1d> <dbl>
#>  1     0       0            0           0          0      0     0        0     0
#>  2     0       1            0           0          1      0     0        1     0
#>  3     0       1            0           0          0      0     0        0     0
#>  4     0       0            0           0          0      0     0        0     0
#>  5     0       1            0           0          1      0     0        0     0
#>  6     0       1            0           0          1      0     0        1     0
#>  7     0       1            0           0          1      0     0        0     0
#>  8     0       1            0           0          0      0     0        0     0
#>  9     0       0            0           0          0      0     0        0     0
#> 10     0       0            0           0          0      0     0        0     0
#> # ℹ 199,990 more rows
…
